%YAML 1.1
%TAG !u! tag:unity3d.com,2011:
--- !u!78 &1
TagManager:
  serializedVersion: 2
  tags:
  - Picker
  - Stopper
  - CollectibleObjects
  - road
  - RotatorActivator
  layers:
  - Default
  - TransparentFX
  - Ignore Raycast
  - 
  - Water
  - UI
  - Picker
  - Stopper
  - 'CollectibleObjects '
  - Piston
  - Rotator
  - Platform
  - Map
  - 
  - 
  - 
  - 
  - 
  - 
  - 
  - 
  - 
  - 
  - 
  - 
  - 
  - 
  - 
  - 
  - 
  - 
  - EditorOnly
  m_SortingLayers:
  - name: Default
    uniqueID: 0
    locked: 0
